STATE,AUDITED ,INSULIN
Perlis,6483,1096
Kedah,5920,902
Kelantan,9805,1565
Melaka,14728,3006
N.Sembilan,32402,9050
Pahang,16844,3369
Perak,7342,1221
Johor,1168,194
P.Pinang,3690,641
Sabah,3014,448
Sarawak,3116,482
Selangor,6038,1461
Terengganu,4014,892
WP Kuala Lumpur,8716,2071
WP Labuan,101,0
WP Putrajaya,631,151
